<html>
    <title>Creating secure decentralized content management systems on Ethereum blockchain with Raku</title>
    <meta charset="utf-8">
    <meta name="viewport" content="width=device-width, initial-scale=1, shrink-to-fit=no">
    <head>
        <link rel="icon" href="data:;base64,iVBORw0KGgo=">
        <link href="https://fonts.googleapis.com/css?family=Source+Code+Pro&display=swap" rel="stylesheet">
        <link rel="stylesheet" href="https://cdnjs.cloudflare.com/ajax/libs/reveal.js/3.6.0/css/reveal.min.css">
        <link rel="stylesheet" href="https://cdnjs.cloudflare.com/ajax/libs/reveal.js/3.6.0/css/theme/white.css">
        <link rel="stylesheet" href="https://cdnjs.cloudflare.com/ajax/libs/reveal.js/3.6.0/lib/css/zenburn.min.css">
        <link href="resources/skins/akin/css/pheix-tpc20cic-presentation.css?ts={{tmpl_timestamp}}" rel="stylesheet">
    </head>
    <body class="pheix-presentation-bg">
        <div class="pheix-presentation-container">
        <div class="reveal">
            <div class="slides">
                <section class="pheix-presentation-slide pheix-presentation-slide-tpc20">
                     <div style="background: none;">
                     <div class="pheix-presentation-slide-tpc20-text">Creating secure decentralized content management systems on Ethereum blockchain with Raku</div>
                     <div class="pheix-presentation-slide-tpc20-author-container">
                         <div class="pheix-presentation-slide-tpc20-author">
                             <div class="pheix-inline-block-w50 pheix-text-align-left"><strong>The Perl Conference in the Cloud</strong>, <span>26th June 2020</span></div>
                             <div class="pheix-inline-block-w50"><a href="https://narkhov.pro/" class="pheix-author-link" target="_blank">@knarkhov</a></div>
                        </div>
                     </div>
                     </div>
                </section>
                <section class="pheix-presentation-v-slides">
                    <section class="pheix-presentation-slide">
                        <div class="pheix-presentation-slide-header pheix-presentation-slide-bg-1">What is CMS?</div>
                        <div class="pheix-presentation-slide-body-container">
                            <div class="pheix-presentation-slide-body">
                                <p>Web content management system (CMS) allows non-technical users to make changes to an existing website with little or no training. CMS is a Web-site maintenance tool for non-technical administrators.</p>
                                <p><strong>A few specific CMS features:</strong></p>
                                <ol class="pheix-presentation-bigger-font">
                                    <li>Legacy, decoupled and headless architecture;</li>
                                    <li>Presentation and administration layers;</li>
                                    <li>Web page generation via templates;</li>
                                    <li>Scalability and expandability via modules;</li>
                                    <li>WYSIWYG editing tools;</li>
                                    <li>Workflow management (access levels, roles).</li>
                                </ol>
                            </div>
                        </div>
                    </section>
                    <section class="pheix-presentation-slide">
                        <div class="pheix-presentation-slide-header pheix-presentation-slide-bg-1">Raku/Perl6 content management systems and frameworks</div>
                        <div class="pheix-presentation-slide-body-container">
                            <div class="pheix-presentation-slide-body">
                                <p>A few well-known Raku/Perl6-based content management systems and frameworks:</p>
                                <ol class="pheix-presentation-bigger-font">
                                    <li><strong><a href="https://github.com/scmorrison/uzu" target="_blank">Uzu</a></strong> — static site generator with built-in web server, file modification watcher, live reload, themes, multi-page support;</li>
                                    <li><strong><a href="https://github.com/davepagurek/Cantilever" target="_blank">Cantilever</a></strong> — CMS for Raku with built-in web server and flat-file database;</li>
                                    <li><strong><a href="https://github.com/viklund/november" target="_blank">November</a></strong> — A wiki engine written in Raku, the oldest from known P6 content management systems;</li>
                                    <li><strong><a href="https://cro.services/" target="_blank">Cro</a></strong> — a set of libraries for building reactive Raku-driven distributed systems, Cro is the most promising framework for web applications now;</li>
                                    <li><strong><a href="https://github.com/Bailador/Bailador" target="_blank">Bailador</a></strong> — light-weight route-based web application framework for Raku with integrated web-server.</li>
                                </ol>
                            </div>
                        </div>
                    </section>
                    <section class="pheix-presentation-slide">
                        <div class="pheix-presentation-slide-header pheix-presentation-slide-bg-1">Content on blockchain: benefits</div>
                        <div class="pheix-presentation-slide-body-container">
                            <div class="pheix-presentation-slide-body">
                                <p><strong>General benefits of blockchain data storage:</strong></p>
                                <ul class="pheix-presentation-bigger-font">
                                    <li>Improved data privacy and security: data in a blockchain network is highly secure and tamper-evident;</li>
                                    <li>Increases data reliability: data in the blockchain is broken down and stored in the nodes within the network;</li>
                                    <li>Cost reduction in cloud computing;</li>
                                    <li>High availability and accuracy of data;</li>
                                    <li>Storage is decentralized.</li>
                                </ul>
                            </div>
                        </div>
                    </section>
                </section>
                <section class="pheix-presentation-v-slides">
                    <section class="pheix-presentation-slide">
                        <div class="pheix-presentation-slide-header pheix-presentation-slide-bg-1">Raku and WWW</div>
                        <div class="pheix-presentation-slide-body-container">
                            <div class="pheix-presentation-slide-body">
                                <p><strong>Common Gateway Interface (CGI)</strong> is an interface specification for web servers to execute programs like console applications (also called command-line interface programs) running on a server that generates web pages dynamically. Usually CGI script executes at the time a request is made and generates response.</p>
                                <p>Minimalistic CGI library is provided by <a href="https://github.com/viklund/november" target="_blank">November</a> — one of the oldest Raku packages.</p>
                                <p>CGI is simple and still works, but it's too slow for Raku.</p>
                            </div>
                        </div>
                    </section>
                    <section class="pheix-presentation-slide">
                        <div class="pheix-presentation-slide-header pheix-presentation-slide-bg-1">FastCGI</div>
                        <div class="pheix-presentation-slide-body-container">
                            <div class="pheix-presentation-slide-body">
                                <p><strong>FastCGI</strong> is a protocol that allows an HTTP server to communicate with a persistent application over a socket, thus removing the process startup overhead of traditional CGI applications. It is supported as standard (or through supporting modules,) by most common HTTP server software (such as Apache, nginx and lighthttpd).</p>
                                <p>In Raku we have <a href="https://github.com/jonathanstowe/raku-fastcgi-nativecall/" target="_blank">FastCGI::NativeCall</a>: an implementation of FastCGI using <a href="https://docs.raku.org/language/nativecall" target="_blank">NativeCall</a>.</p>
                                <p class="fragment"><span class="pheix-code-obj pheix-bold">Hint:</span> <strong>FastCGI::NativeCall</strong> is excellent start point to accelerate your CGI app with minimal changes.</p>
                            </div>
                        </div>
                    </section>
                    <section class="pheix-presentation-slide">
                        <div class="pheix-presentation-slide-header pheix-presentation-slide-bg-1">RSGI</div>
                        <div class="pheix-presentation-slide-body-container">
                            <div class="pheix-presentation-slide-body">
                                <p><a href="https://github.com/tokuhirom/p6-Crust" target="_blank">Crust</a> - Raku Superglue interface (RSGI or P6SGI) for Web frameworks and Web Servers. It is a set of tools for using the RakuWAPI (Web API for Raku) stack. It contains middleware components, and utilities for Web application frameworks. Crust is like Perl5's Plack, Ruby's Rack, Python's Paste for WSGI.</p>
                                <p>RakuWAPI are still under draft and available at: <a href="https://github.com/zostay/RakuWAPI" target="_blank">https://github.com/zostay/RakuWAPI</a>.</p>
                                <p><span class="pheix-code-func pheix-bold pheix-code-select">How RSGI works:</span></p>
                                <ul>
                                    <li class="fragment"><tt>$env</tt> is used to exchange information between the client and the server;</li>
                                    <li class="fragment">RSGI app is subroutine code reference or callable class;</li>
                                    <li class="fragment">RSGI app should return array: HTTP status, [HTTP headers], [Response body];</li>
                                </ul>
                            </div>
                        </div>
                    </section>
                    <section class="pheix-presentation-slide">
                        <div class="pheix-presentation-slide-header pheix-presentation-slide-bg-1">Cro Sevices</div>
                        <div class="pheix-presentation-slide-body-container">
                            <div class="pheix-presentation-slide-body">
                                <p><a href="https://cro.services/" target="_blank">Cro</a> is a set of libraries for building reactive distributed systems, lovingly crafted to take advantage of all Raku has to offer. Cro is absolutely efficient for quick start: it provides HTTP server, client, muscle URL router and many other «must have» things.</p>
                                <p>Couple Nginx+Cro works fast and stable. But...</p>
                                <p>Cro provides many isolated modules and dependencies. For example, to use HTTP Server + Router you need to install <tt>Cro::Core</tt> (provides 19 modules), <tt>Cro::HTTP</tt> (provides 48 modules, depends on 12 packages) and <tt>Cro::TLS</tt> (provides 1 module and depends on 2 packages).</p>
                                <p class="fragment"><span class="pheix-code-func pheix-bold pheix-code-select">So, it's over 80+ modules for HTTP Server + Router.</span></p>
                            </div>
                        </div>
                    </section>
                    <section class="pheix-presentation-slide">
                        <div class="pheix-presentation-slide-header pheix-presentation-slide-bg-1">Profile your code!</div>
                        <div class="pheix-presentation-slide-body-container">
                            <div class="pheix-presentation-slide-body">
                                <p class="pheix-text-align-center">Take a look to <a href="https://www.learningraku.com/2016/12/02/quick-tip-17-rakudos-built-in-profiler/" target="_blank">quick Tip #17: Rakudo’s built-in profiler</a><br>from «Learning Raku» by <strong>brian d foy</strong>.</p>
                                <div class="pheix-text-align-center"><img src="resources/skins/akin/img/slides/tpc20/s09-profile.png" alt="" class="pheix-width-70"></div>
                            </div>
                        </div>
                    </section>
                </section>
                <section class="pheix-presentation-v-slides">
                    <section class="pheix-presentation-slide">
                        <div class="pheix-presentation-slide-header pheix-presentation-slide-bg-1">WWW and Blockchain</div>
                        <div class="pheix-presentation-slide-body-container">
                            <div class="pheix-presentation-slide-body">
                                <p>In 2020 we are focusing on <a href="https://web.dev/vitals/" target="_blank">three aspects</a> of the user experience: <strong>loading</strong>, <strong>interactivity</strong>, and <strong>visual stability</strong>. There are the following metrics (and their respective thresholds):</p>
                                <div>
                                    <div class="pheix-inline-block-w33 pheix-text-align-center"><img src="resources/skins/akin/img/slides/tpc20/s10-lcp.svg" alt="" class="pheix-width-100"></div>
                                    <div class="pheix-inline-block-w33 pheix-text-align-center"><img src="resources/skins/akin/img/slides/tpc20/s10-fid.svg" alt="" class="pheix-width-100"></div>
                                    <div class="pheix-inline-block-w33 pheix-text-align-center"><img src="resources/skins/akin/img/slides/tpc20/s10-cls.svg" alt="" class="pheix-width-100"></div>
                                </div>
                            </div>
                        </div>
                    </section>
                    <section class="pheix-presentation-slide">
                        <div class="pheix-presentation-slide-header pheix-presentation-slide-bg-1">Blockchain = latency</div>
                        <div class="pheix-presentation-slide-body-container">
                            <div class="pheix-presentation-slide-body">
                                <p>Transactions are slow. For example, private Proof-of-Authority chain with a block gas limit of 4,700,000 Wei running on 5 second block generation intervals can support 30+ transactions per second at 20 kWei gas per transaction. <strong>What are these numbers mean?</strong></p>
                                <p class="fragment"><strong>TX cost:</strong> if we're storing fat data on blockchain, TX can consume a lot of gas: over 5 MWei for UTF8 text of 5,000 characters.</p>
                                <p class="fragment"><strong>Block interval:</strong> ethereum block chain client (Geth, Parity, etc...) has static settings for block generation time, most of the PoA networks use 5 seconds period by default.</p>
                                <p class="fragment"><strong>Summary:</strong> front line latency is block generation time, second line: data length. In real life latency is something more complex: it depends on hardware, network topology and client setup.</p>
                            </div>
                        </div>
                    </section>
                    <section class="pheix-presentation-slide">
                        <div class="pheix-presentation-slide-header pheix-presentation-slide-bg-1">Web CMS on blockchain: myth or not?!</div>
                        <div class="pheix-presentation-slide-body-container">
                            <div class="pheix-presentation-slide-body">
                                <p>As we see, <a href="https://web.dev/lcp/" target="_blank">LCP</a> should occur within 2.5 seconds, otherwise the page will be down ranking. Objectively, we cannot perform this in real-time on the average VPS. But, there are a few tips and tricks:</p>
                                <ul class="pheix-presentation-bigger-font">
                                    <li>we should use fast techniques while fetching data from blockchain for <strong>read-only pages</strong> — lazy loading, caching or compressing;</li>
                                    <li>we should use asynchronous write for <strong>writable pages</strong>.</li>
                                </ul>
                                <p class="fragment">To mask latency on read it's good idea to perform fetch within guaranteed time limit: get cached data or get a small part of actual data with smth like «More» button.</p>
                                <p class="fragment">On write we should use JavaScript asynchronous handlers on client to check TX in background (<a href="https://developer.mozilla.org/en-US/docs/Web/JavaScript/Reference/Global_Objects/Promise" target="_blank">Promise</a> object).</p>
                            </div>
                        </div>
                    </section>
                    <section class="pheix-presentation-slide">
                        <div class="pheix-presentation-slide-header pheix-presentation-slide-bg-1">Caching tools</div>
                        <div class="pheix-presentation-slide-body-container">
                            <div class="pheix-presentation-slide-body">
                                <p>Common approach to increase speed of dApp is to minimize a number of TXs. First technique is to put caching tools to top data-storing layer and increase reading speed. Syncing with blockchain should be done after cache expiration. Cache expiration period should be the configurable value.</p>
                                <p>Most known Raku caching modules are:</p>
                                <ul class="pheix-presentation-bigger-font">
                                    <li><strong>Cache::Memcached</strong> — Raku client for memcached a distributed caching daemon, <a href="https://github.com/cosimo/perl6-cache-memcached" target="_blank">https://github.com/cosimo/perl6-cache-memcached</a>;</li>
                                    <li><strong>Redis</strong> — Raku client for Redis server, <a href="https://github.com/cofyc/perl6-redis" target="_blank">https://github.com/cofyc/perl6-redis</a>;</li>
                                    <li><strong>Propius</strong> — Raku memory cache with loader and eviction by time, <a href="https://github.com/atroxaper/p6-Propius" target="_blank">https://github.com/atroxaper/p6-Propius</a>.</li>
                                </ul>
                            </div>
                        </div>
                    </section>
                    <section class="pheix-presentation-slide">
                        <div class="pheix-presentation-slide-header pheix-presentation-slide-bg-1">Storing data on blockchain with compression</div>
                        <div class="pheix-presentation-slide-body-container">
                            <div class="pheix-presentation-slide-body">
                                <p>When you're working with Ethereum blockchain you should permanently think about <strong>cost</strong> of your transactions (TXs). TX cost is estimated in <strong>gas</strong>.</p>
                                <p>In private Ethereum networks you have unlimited gas amount, so cost of transaction is not a critical value. But amount of data is the thing, you should still think about. Big data decreases TX speed and utilize disk space, so it's a good idea to compress data before commit — text data can be compressed by LZW.</p>
                                <p>In Raku there is <a href="https://gitlab.com/pheix/lzw-revolunet-perl6/" target="_blank">LZW::Revolunet</a> module for LZW compression.</p>
                            </div>
                        </div>
                    </section>
                </section>
                <section class="pheix-presentation-v-slides">
                    <section class="pheix-presentation-slide">
                        <div class="pheix-presentation-slide-header pheix-presentation-slide-bg-1">Querying ethereum nodes — Net::Ethereum</div>
                        <div class="pheix-presentation-slide-body-container">
                            <div class="pheix-presentation-slide-body">
                                <p><strong>Net::Ethereum</strong> module is a Raku interface for interacting with the Ethereum blockchain and its ecosystem via JSON RPC API. Module is available from: <a href="https://gitlab.com/pheix/net-ethereum-perl6" target="_blank">https://gitlab.com/pheix/net-ethereum-perl6</a>.</p>
                                <p class="fragment"><strong>Net::Ethereum</strong> communicates with pre-installed Ethereum client (Geth, Parity, etc...) and <a href="https://github.com/ethereum/solidity" target="_blank">Solidity</a> compiler (optional). Nevertheless you can work without Solidity with precompiled smart contracts.</p>
                            </div>
                        </div>
                    </section>
                    <section class="pheix-presentation-slide">
                        <div class="pheix-presentation-slide-header pheix-presentation-slide-bg-1">Four layer dApp model</div>
                        <div class="pheix-presentation-slide-body-container">
                            <div class="pheix-presentation-slide-body">
                                <div class="pheix-ib pheix-width-30">
                                    <div class="fragment pheix-abs-block-txt pheix-s18-block-txt-1">Raku application</div>
                                    <div class="fragment pheix-abs-block-txt pheix-s18-block-txt-2">Net::Ethereum</div>
                                    <div class="fragment pheix-abs-block-txt pheix-s18-block-txt-3">Blockchain CLI (RPC)</div>
                                    <div class="fragment pheix-abs-block-txt pheix-s18-block-txt-4">Ethereum ledger</div>
                                </div>
                                <div class="pheix-ib pheix-width-70"><img src="resources/skins/akin/img/slides/tpc20/s16-pyramid.png" alt="" class="pheix-width-100 pheix-no-shadow"></div>
                            </div>
                        </div>
                    </section>
                    <section class="pheix-presentation-slide">
                        <div class="pheix-presentation-slide-header pheix-presentation-slide-bg-1">CRUD smart contract</div>
                        <div class="pheix-presentation-slide-body-container">
                            <div class="pheix-presentation-slide-body">
                                <p>A contract in the sense of <strong>Solidity</strong> is a collection of code (its functions) and data (its state) that resides at a specific address on the Ethereum blockchain.</p>
                                <p>To interact with blockain as a simple data storage we should implement the basic <a href="https://en.wikipedia.org/wiki/Create,_read,_update_and_delete" target="_blank">CRUD</a> methods:</p>
                                <pre class="fragment javascript"><code data-trim data-noescape><span class="pheix-code-obj">function</span> <span class="pheix-code-func">new_table</span>( <span class="pheix-code-type">string</span> <span class="pheix-code-var">tabname</span> );</code></pre>
                                <pre class="fragment javascript"><code data-trim data-noescape><span class="pheix-code-obj">function</span> <span class="pheix-code-func">drop_table</span>( <span class="pheix-code-type">string</span> <span class="pheix-code-var">tabname</span> );</code></pre>
                                <pre class="fragment javascript"><code data-trim data-noescape><span class="pheix-code-obj">function</span> <span class="pheix-code-func">select</span>( <span class="pheix-code-type">string memory</span> <span class="pheix-code-var">tabname</span>, <span class="pheix-code-type">uint</span> <span class="pheix-code-var">rowid</span> );</code></pre>
                                <pre class="fragment javascript"><code data-trim data-noescape><span class="pheix-code-obj">function</span> <span class="pheix-code-func">update</span>( <span class="pheix-code-type">string memory</span> <span class="pheix-code-var">tabname</span>, <span class="pheix-code-type">uint</span> <span class="pheix-code-var">rowid</span>, <span class="pheix-code-type">string memory</span> <span class="pheix-code-var">rowdata</span> );</code></pre>
                                <pre class="fragment javascript"><code data-trim data-noescape><span class="pheix-code-obj">function</span> <span class="pheix-code-func">insert</span>( <span class="pheix-code-type">string memory</span> <span class="pheix-code-var">tabname</span>, <span class="pheix-code-type">string memory</span> <span class="pheix-code-var">rowdata</span>, <span class="pheix-code-type">uint</span> <span class="pheix-code-var">id</span> );</code></pre>
                                <pre class="fragment javascript"><code data-trim data-noescape><span class="pheix-code-obj">function</span> <span class="pheix-code-func">remove</span>( <span class="pheix-code-type">string memory</span> <span class="pheix-code-var">tabname</span>, <span class="pheix-code-type">uint</span> <span class="pheix-code-var">rowid</span> );</code></pre>
                            </div>
                        </div>
                    </section>
                    <section class="pheix-presentation-slide">
                        <div class="pheix-presentation-slide-header pheix-presentation-slide-bg-1">Use Docker!</div>
                        <div class="pheix-presentation-slide-body-container">
                            <div class="pheix-presentation-slide-body">
                                <p class="pheix-text-align-center pheix-s20-p">Pull: <a href="https://gitlab.com/pheix-pool/docker-ethereum/container_registry" target="_blank">https://gitlab.com/pheix-pool/docker-ethereum/container_registry</a>, and...</p>
                                <div class="pheix-text-align-center"><img src="resources/skins/akin/img/slides/tpc20/s18-docker.jpg" alt="" class="pheix-s20-height"></div>
                            </div>
                        </div>
                    </section>
                    <section class="pheix-presentation-slide">
                        <div class="pheix-presentation-slide-header pheix-presentation-slide-bg-1">Access blockchain via smart contracts</div>
                        <div class="pheix-presentation-slide-body-container">
                            <div class="pheix-presentation-slide-body">
                                <p>Read request is interpreted by EVM as <strong>Call</strong>, and write request is interpreted as <strong>Transaction</strong>.</p>
                                <p>Smart contracts have functions and each read-only func should run as <strong>Call</strong> from upper level. For example, from GETH JS console call can be made as:</p>
                                <pre class="javascript"><code data-trim data-noescape><span class="pheix-code-obj">smart_contract_obj</span>.<span class="pheix-code-func">readfunc</span>( <span class="pheix-code-var">arg</span> );</code></pre>
                                <p>Functions with write access runs as <strong>Transaction</strong> with specific helper method provided by CLI:</p>
                                <pre class="javascript"><code class="hljs" data-trim data-noescape>
                                <span class="pheix-code-obj">smart_contract_obj</span>.<span class="pheix-code-func">wrfunc</span>.<b>sendTransaction</b>(<br>
                                &nbsp;&nbsp;&nbsp;&nbsp;<span class="pheix-code-var">farg1</span>,<br>
                                &nbsp;&nbsp;&nbsp;&nbsp;<span class="pheix-code-var">farg2</span>,<br>
                                &nbsp;&nbsp;&nbsp;&nbsp;{ from : <span class="pheix-code-var">me</span>, gas : <span class="pheix-code-var">txmaxgas</span> }<br>
                                );
                                </code></pre>
                            </div>
                        </div>
                    </section>
                    <section class="pheix-presentation-slide">
                        <div class="pheix-presentation-slide-header pheix-presentation-slide-bg-1">Basic private methods</div>
                        <div class="pheix-presentation-slide-body-container">
                            <div class="pheix-presentation-slide-body">
                                <p>Minimalistic app level class must have methods for <strong>Call</strong> and <strong>Transaction</strong>. Something universal:</p>
                                <pre class="javascript"><code class="hljs" data-trim data-noescape>
                                <span class="pheix-code-obj">method</span> <span class="pheix-code-func">!read_blockchain</span>( <span class="pheix-code-type">Str</span> <span class="pheix-code-var">:$method</span>, <span class="pheix-code-type">Hash</span> <span class="pheix-code-var">:$data?</span> ) <span class="pheix-code-obj">returns</span> <span class="pheix-code-type">Cool</span>;<br>
                                <span class="pheix-code-obj">method</span> <span class="pheix-code-func">!write_blockchain</span>( <span class="pheix-code-type">Str</span> <span class="pheix-code-var">:$method</span>, <span class="pheix-code-type">Hash</span> <span class="pheix-code-var">:$data?</span>, <span class="pheix-code-type">Bool</span> <span class="pheix-code-var">:$waittx</span> ) <span class="pheix-code-obj">returns</span> <span class="pheix-code-type">Hash</span>;
                                </code></pre>
                                <p>Under the hood of <span class="pheix-code-func pheix-bold pheix-code-select">!read_blockchain</span> and <span class="pheix-code-func pheix-bold pheix-code-select">!write_blockchain</span> we have lower level <strong>Net::Ethereum</strong> calls. Arguments are:</p>
                                <ul class="pheix-s20-p">
                                    <li class="fragment"><span class="pheix-code-var pheix-bold pheix-code-select">$method</span> is func name at smart contract level;</li>
                                    <li class="fragment"><span class="pheix-code-var pheix-bold pheix-code-select">$data</span> is Raku hash with smart contract func arguments ( argname => value );</li>
                                    <li class="fragment"><span class="pheix-code-var pheix-bold pheix-code-select">$waittx</span> is blocking bool: will we wait until TX be mined?</li>
                                </ul>
                            </div>
                        </div>
                    </section>
                    <section class="pheix-presentation-slide">
                        <div class="pheix-presentation-slide-header pheix-presentation-slide-bg-1">Public methods and helpers</div>
                        <div class="pheix-presentation-slide-body-container">
                            <div class="pheix-presentation-slide-body">
                                <p>Minimalistic app level class must have at least two simple public methods:</p>
                                <pre class="javascript"><code class="hljs" data-trim data-noescape>
                                <span class="pheix-code-obj">method</span> <span class="pheix-code-func">set_data</span>( <span class="pheix-code-type">UInt</span> <span class="pheix-code-var">:$number</span>, <span class="pheix-code-type">Bool</span> <span class="pheix-code-var">:$waittx?</span> ) <span class="pheix-code-obj">returns</span> <span class="pheix-code-type">Hash</span>;<br>
                                <span class="pheix-code-obj">method</span> <span class="pheix-code-func">get_data</span> <span class="pheix-code-obj">returns</span> <span class="pheix-code-type">UInt</span>;
                                </code></pre>
                                <p>In general, num of your public methods equals to num of your smart contract public methods. This example illustrates <span class="pheix-code-type pheix-bold pheix-code-select">UInt</span> data storing on blockchain.</p>
                                <p><strong>Helpers:</strong></p>
                                <pre class="javascript"><code class="hljs" data-trim data-noescape>
                                <span class="pheix-code-obj">method</span> <span class="pheix-code-func">initialize</span> <span class="pheix-code-obj">returns</span> <span class="pheix-code-type">Bool</span>;<br>
                                <span class="pheix-code-obj">method</span> <span class="pheix-code-func">is_node_active</span> <span class="pheix-code-obj">returns</span> <span class="pheix-code-type">Bool</span>;<br>
                                <span class="pheix-code-obj">method</span> <span class="pheix-code-func">set_contract_addr</span> <span class="pheix-code-obj">returns</span> <span class="pheix-code-type">Bool</span>;<br>
                                <span class="pheix-code-obj">method</span> <span class="pheix-code-func">read_integer</span>( <span class="pheix-code-type">Str</span> <span class="pheix-code-var">:$method</span>, <span class="pheix-code-type">Str</span> <span class="pheix-code-var">:$rcname</span>, <span class="pheix-code-type">Hash</span> <span class="pheix-code-var">:$data?</span> ) <span class="pheix-code-obj">returns</span> <span class="pheix-code-type">Int</span>;<br>
                                </code></pre>
                            </div>
                        </div>
                    </section>
                    <section class="pheix-presentation-slide">
                        <div class="pheix-presentation-slide-header pheix-presentation-slide-bg-1">Override constructor</div>
                        <div class="pheix-presentation-slide-body-container">
                            <div class="pheix-presentation-slide-body">
                                <p>Minimalistic app level class must override the default <strong>Constructor</strong>:</p>
                                <pre class="javascript"><code class="hljs" data-trim data-noescape>
                                <span class="pheix-code-obj">submethod</span> <span class="pheix-code-func">BUILD</span>(<br>
                                &nbsp;&nbsp;&nbsp;&nbsp;<span class="pheix-code-type">Str</span> <span class="pheix-code-var">:$abi</span>,<br>
                                &nbsp;&nbsp;&nbsp;&nbsp;<span class="pheix-code-type">Str</span> <span class="pheix-code-var">:$apiurl</span>,<br>
                                &nbsp;&nbsp;&nbsp;&nbsp;<span class="pheix-code-type">Str</span> <span class="pheix-code-var">:$sctx</span><br>
                                &nbsp;&nbsp;&nbsp;&nbsp;<span class="pheix-code-type">Str</span> <span class="pheix-code-var">:$unlockpwd?</span><br>
                                ) <span class="pheix-code-obj">returns</span> <span class="pheix-code-type">Bool</span>;<br>
                                </code></pre>
                                <p>Inside the <strong>Constructor</strong> we should create <strong>Net::Ethereum</strong> object and assign it to public atrribute <span class="pheix-code-var pheix-bold pheix-code-select">$.ethobj</span> — let's see how it works in real <a href="https://gitlab.com/pheix-research/gpw2020/-/tree/master/lib/Eth" target="_blank">sources</a>.</p>
                            </div>
                        </div>
                    </section>
                    <section class="pheix-presentation-slide">
                        <div class="pheix-presentation-slide-header pheix-presentation-slide-bg-1">Simple Raku app storing data on Ethereum blockchain</div>
                        <div class="pheix-presentation-slide-body-container">
                            <div class="pheix-presentation-slide-body">
                                <div class="fragment pheix-text-align-center pheix-margin-bottom-30"><div class="pheix-padding pheix-s18-block-txt-1 pheix-block-reset-top-left pheix-inline-block-w50">Grab command line arguments</div></div>
                                <div class="fragment pheix-text-align-center pheix-margin-bottom-30"><div class="pheix-padding pheix-s18-block-txt-2 pheix-block-reset-top-left pheix-inline-block-w50">Create Eth::Minimalistic object</div></div>
                                <div class="fragment pheix-text-align-center pheix-margin-bottom-30"><div class="pheix-padding pheix-s18-block-txt-3 pheix-block-reset-top-left pheix-inline-block-w50">Initialize Eth::Minimalistic object</div></div>
                                <div class="fragment pheix-text-align-center pheix-margin-bottom-30"><div class="pheix-padding pheix-s18-block-txt-4 pheix-block-reset-top-left pheix-inline-block-w50">Set or get value :-)</div></div>
                                <p class="fragment pheix-text-align-center pheix-s20-p"><span class="pheix-code-obj pheix-bold">Hint:</span> <strong>set/get</strong> section depends on app implementation (e.g. web or console).</p>
                            </div>
                        </div>
                    </section>
                </section>
                <section class="pheix-presentation-v-slides">
                    <section class="pheix-presentation-slide">
                        <div class="pheix-presentation-slide-header pheix-presentation-slide-bg-1">Generic CMS on blockchain</div>
                        <div class="pheix-presentation-slide-body-container">
                            <div class="pheix-presentation-slide-body">
                                <p class="pheix-text-align-center">Deploy your <span class="pheix-code-type pheix-bold pheix-code-select">backend</span> (presentation and administration layers) on different ethereum nodes. The general benefit: <strong>make your access secure</strong>.</p>
                                <div class="pheix-width-100 pheix-text-align-center"><img src="resources/skins/akin/img/slides/tpc20/s24-cms-headless.jpg" alt="" class="pheix-mediumheight-slide-img"></div>

                            </div>
                        </div>
                    </section>
                    <section class="pheix-presentation-slide">
                        <div class="pheix-presentation-slide-header pheix-presentation-slide-bg-1">New think of administration layers</div>
                        <div class="pheix-presentation-slide-body-container">
                            <div class="pheix-presentation-slide-body">
                                <p>Ethereum node restricts the access to the blockchain by setup policy or account priviledges. So, there's no need to have isolated administration layer at backend. If we have enough priviledges to send TXs at current node — we can store data, otherwise the <strong>CMS is headless</strong> in terms of modification on this node, e.g. you have readonly content.</p>
                                <p>On another node — <strong>secure</strong>, <strong>powerful</strong> and <strong>reliable</strong> — you're starting the instanse of CMS backend with write priviledges. This node will be able to send TXs and modify content. By the way this node could be switched off — no any problems to your users, content is still available via first <i>readonly</i> node.</p>
                            </div>
                        </div>
                    </section>
                    <section class="pheix-presentation-slide">
                        <div class="pheix-presentation-slide-header pheix-presentation-slide-bg-1">Quick start</div>
                        <div class="pheix-presentation-slide-body-container">
                            <div class="pheix-presentation-slide-body">
                                <p><strong>Net::Ethereum</strong> + <strong>Minimalistic module</strong> + some monkey code to implement a few methods for data management and <a href="https://en.wikipedia.org/wiki/Representational_state_transfer" target="_blank">REST-API</a>. No need to store/check passwords, lead sessions, manage user roles, etc... — all you need is to use blockchain PoA network with correctly configured nodes.</p>
                                <p><span class="pheix-code-type pheix-bold pheix-code-select">As a result you got secure and decentralized headless CMS.</span></p>
                                <p>Lagacy demo backend application prototype is available at:<br><a href="https://gitlab.com/pheix-research/gpw2020" target="_blank">https://gitlab.com/pheix-research/gpw2020</a>.</p>
                            </div>
                        </div>
                    </section>
                    <section class="pheix-presentation-slide">
                        <div class="pheix-presentation-slide-header pheix-presentation-slide-bg-1">And?!</div>
                        <div class="pheix-presentation-slide-body-container">
                            <div class="pheix-presentation-slide-body">
                                <p>Now your data is stored on definitely interpreted, encrypted ledger within distributed network.</p>
                                <p class="fragment">Blocks can be decrypted with <strong>private keys</strong>. Each <strong>network member</strong> (node) has own private key.</p>
                                <p class="fragment">Consider the hacker <span class="pheix-code-var pheix-bold pheix-code-select">get private key</span> on one host and falsify data: corrupted data will store in chain and you can (simply or not) identify what data is trusted/corrupted with comparisons or deep data analysis.</p>
                                <p class="fragment">Chain provides timestamping over all data changes, so if you identify abnormal activity in your server logs — just mark chain segment as potentially falsified.</p>
                            </div>
                        </div>
                    </section>
                </section>
                <section class="pheix-presentation-v-slides">
                    <section class="pheix-presentation-slide">
                        <div class="pheix-presentation-slide-header pheix-presentation-slide-bg-1">Hybrid data model is a way to got boost</div>
                        <div class="pheix-presentation-slide-body-container">
                            <div class="pheix-presentation-slide-body">
                                <div class="pheix-text-align-center">
                                    <div class="pheix-ib"><img src="resources/skins/akin/img/slides/slide24.png" alt="" class="pheix-no-shadow pheix-maxheight-slide-img"></div>
                                    <div class="pheix-ib pheix-abs pheix-width-100 pheix-block-reset-top-left"><div class="pheix-hybrid-b-2 pheix-ib">Regular relational database</div></div>
                                    <div class="pheix-ib pheix-abs pheix-width-100 pheix-block-reset-top-left"><div class="pheix-hybrid-b-3 pheix-ib">Flat-file database</div></div>
                                    <div class="pheix-ib pheix-abs pheix-width-100 pheix-block-reset-top-left"><div class="pheix-hybrid-b-4 pheix-ib">Ethereum blockchain</div></div>
                                    <div class="pheix-ib pheix-abs pheix-width-100 pheix-block-reset-top-left"><div class="pheix-hybrid-b-1 pheix-ib pheix-bold">CMS</div></div>
                                </div>
                            </div>
                        </div>
                    </section>
                    <section class="pheix-presentation-slide">
                        <div class="pheix-presentation-slide-header pheix-presentation-slide-bg-1">Regular relational databases and Flat-files</div>
                        <div class="pheix-presentation-slide-body-container">
                            <div class="pheix-presentation-slide-body">
                                <p>CMS should has independent database access API layer with basic CRUD methods. So, it's possible to connect any regular relational database, supported by Raku <strong>DBIsh</strong> module: <a href="https://github.com/perl6/DBIish" target="_blank">https://github.com/perl6/DBIish</a>. Hybrid model of data storing supposes that you optimize your dApp in the next directions:</p>
                                <p>Flat-files are efficient quick-start solution on low-resources devices or servers with restricted install permissions. Flat-files databases could be syncing with popular clouds out-of-the-box and have advantages such as: simple dumping, cross server moving and backuping.</p>
                            </div>
                        </div>
                    </section>
                    <section class="pheix-presentation-slide">
                        <div class="pheix-presentation-slide-header pheix-presentation-slide-bg-1">Tamper-proof data on blockchain</div>
                        <div class="pheix-presentation-slide-body-container">
                            <div class="pheix-presentation-slide-body">
                                <p>CMS should use blockchain as a database (ledger) that is shared across a private PoA network. This ledger is encrypted such that only authorized parties can access the data. Since the data is shared, the records cannot be tampered. Thus, the data will not be held by a single entity.</p>
                                <p>By decentralizing data storage, we improve the security of the data. Any attack or outage at a single point will not have a devastating effect because other nodes in other locations will continue to function.</p>
                                <p>Blockchain is good for tamper-proof data: vote results, ratings, test marks, bug tracks, changes history and others.</p>
                            </div>
                        </div>
                    </section>
                    <section class="pheix-presentation-slide">
                        <div class="pheix-presentation-slide-header pheix-presentation-slide-bg-1">Keep in mind lazy techniques</div>
                        <div class="pheix-presentation-slide-body-container">
                            <div class="pheix-presentation-slide-body">
                                <p>Lazy loading is an efficient pattern to save resources and increase response time while reading data from blockchain. In Pheix we store text data in <strong>4KB</strong> frames (e.g. <strong>100KB</strong> text is stored in 25 frames), so when we need to output the text preview, we do not read whole text — we're reading just first frame.</p>
                                <p>Frames are useful while store data on blockchain. When we post <strong>100KB</strong> text — we proceed pipeline of 25 <strong>4KB</strong> frames with async technique. Pipeline provides ability to output progress bar or equal widget, that show process status.</p>
                            </div>
                        </div>
                    </section>
                </section>
                <section class="pheix-presentation-v-slides">
                    <section class="pheix-presentation-slide">
                        <div class="pheix-presentation-slide-header pheix-presentation-slide-bg-1">Pheix: decentralized CMS on air</div>
                        <div class="pheix-presentation-slide-body-container">
                            <div class="pheix-presentation-slide-body">
                                <div class="pheix-width-100 pheix-text-align-center"><img src="resources/skins/akin/img/slides/tpc20/s32-ethelia.png" alt="" class="pheix-mediumheight-slide-img"></div>
                                <div class="pheix-text-align-center"><div class=""><strong>I'm the Raku CMS: <a href="https://pheix.org" target="_blank">https://pheix.org</a></strong></div></div>
                            </div>
                        </div>
                    </section>
                    <section class="pheix-presentation-slide">
                        <div class="pheix-presentation-slide-header pheix-presentation-slide-bg-1">Pheix: URL routing via Router::Right</div>
                        <div class="pheix-presentation-slide-body-container">
                            <div class="pheix-presentation-slide-body">
                                <p>We use external module <strong>Router::Right</strong> for URL routing. <strong>Router::Right</strong> is Raku-based, framework-agnostic URL routing engine for web applications.</p>
                                <p>This module was ported from Perl5 implementation:<br><a href="https://github.com/mla/router-right" target="_blank">https://github.com/mla/router-right</a></p>
                                <p>Module repo: <a href="https://gitlab.com/pheix/router-right-perl6" target="_blank">https://gitlab.com/pheix/router-right-perl6</a></p>
                                <p><strong>Router::Right</strong> is well-documented, you could find docs, examples and best-practices in wiki: <a href="https://gitlab.com/pheix/router-right-perl6/wikis/home" target="_blank">https://gitlab.com/pheix/router-right-perl6/wikis/home</a></p>
                            </div>
                        </div>
                    </section>
                    <section class="pheix-presentation-slide">
                        <div class="pheix-presentation-slide-header pheix-presentation-slide-bg-1">Pheix: dependencies</div>
                        <div class="pheix-presentation-slide-body-container">
                            <div class="pheix-presentation-slide-body">
                                <p><strong>Pheix is dependable on:</strong></p>
                                <ul class="pheix-presentation-bigger-font">
                                    <li><a href="https://github.com/timo/json_fast" target="_blank">JSON::Fast</a>:ver&lt;0.9.12&gt;</li>
                                    <li><a href="https://github.com/sergot/http-useragent" target="_blank">HTTP::UserAgent</a>:ver&lt;1.1.49&gt;:authgithub:sergot</li>
                                    <li><a href="https://gitlab.com/pheix/net-ethereum-perl6" target="_blank">Net::Ethereum</a>:ver&lt;0.0.95&gt;</li>
                                    <li><a href="https://gitlab.com/pheix/router-right-perl6/" target="_blank">Router::Right</a>:ver&lt;0.0.44&gt;</li>
                                    <li><a href="https://gitlab.com/pheix/lzw-revolunet-perl6/" target="_blank">LZW::Revolunet</a>:ver&lt;0.1.2&gt;</li>
                                    <li><a href="https://github.com/sergot/openssl" target="_blank">OpenSSL</a>:ver&lt;0.1.23&gt;:authgithub:sergot</li>
                                    <li><a href="https://github.com/raku-community-modules/MIME-Base64" target="_blank">MIME::Base64</a>:ver&lt;1.2.1&gt;:authgithub:retupmoca</li>
                                    <li><a href="https://github.com/softmoth/p6-Template-Mustache" target="_blank">Template::Mustache</a>:ver&lt;1.0.1&gt;:authgithub:softmoth</li>
                                    <li><a href="https://modules.perl6.org/dist/MagickWand:cpan:AZAWAWI" target="_blank">MagickWand</a>:ver&lt;0.1.0&gt;:authgithub:azawawi</li>
                                    <li><a href="https://modules.perl6.org/dist/LibraryCheck:cpan:JSTOWE" target="_blank">LibraryCheck</a>:ver&lt;0.0.9&gt;:authgithub:jonathanstowe:api&lt;1.0&gt;</li>
                                    <li><a href="https://github.com/bbkr/GeoIP2" target="_blank">GeoIP2</a>:ver&lt;1.1.0&gt;</li>
                                </ul>
                            </div>
                        </div>
                    </section>
                    <section class="pheix-presentation-slide">
                        <div class="pheix-presentation-slide-header pheix-presentation-slide-bg-1">Web.dev rank</div>
                        <div class="pheix-presentation-slide-body-container">
                            <div class="pheix-presentation-slide-body">
                                <!--<p>Pheix site out-of-the-box got <strong>60+</strong> rank from <a href="https://web.dev" target="_blank">https://web.dev</a>: note, our content is fully on blockchain!</p>-->
                                <div><img src="resources/skins/akin/img/slides/tpc20/s35-webdev.jpg" alt="" class="pheix-width-100"></div>
                                <div class="fragment pheix-abs pheix-width-100 pheix-block-reset-top-left pheix-text-align-center"><div class="pheix-ib pheix-webdev-mark-1"></div></div>
                                <div class="fragment pheix-abs pheix-width-100 pheix-block-reset-top-left pheix-text-align-center"><div class="pheix-ib pheix-webdev-mark-2"></div></div>
                                <div class="fragment pheix-abs pheix-width-100 pheix-block-reset-top-left pheix-text-align-center"><div class="pheix-ib pheix-webdev-mark-3"></div></div>
                            </div>
                        </div>
                    </section>
                    <section class="pheix-presentation-slide">
                        <div class="pheix-presentation-slide-header pheix-presentation-slide-bg-1">Accessibility error</div>
                        <div class="pheix-presentation-slide-body-container">
                            <div class="pheix-presentation-slide-body">
                                <div class="pheix-text-align-center pheix-width-100"><img src="resources/skins/akin/img/slides/tpc20/s36-access.jpg" alt="" class="pheix-width-80"></div>
                            </div>
                        </div>
                    </section>
                    <section class="pheix-presentation-slide">
                        <div class="pheix-presentation-slide-header pheix-presentation-slide-bg-1">Looking forward!</div>
                        <div class="pheix-presentation-slide-body-container">
                            <div class="pheix-presentation-slide-body">
                                <div class="pheix-text-align-center">
                                    <div class="pheix-width-100 pheix-text-align-center"><img src="resources/skins/akin/img/slides/slide28n.png" alt="" class="pheix-no-shadow pheix-width-100"></div>
                                    <div class="pheix-ib pheix-abs pheix-width-100 pheix-block-reset-top-left"><div class="pheix-roadmap-b-1 pheix-ib">Private β-release <strong>20 Jun, 2020</strong></div></div>
                                    <div class="pheix-ib pheix-abs pheix-width-100 pheix-block-reset-top-left"><div class="pheix-roadmap-b-2 pheix-ib">Public β-release</div></div>
                                    <div class="pheix-ib pheix-abs pheix-width-100 pheix-block-reset-top-left"><div class="pheix-roadmap-b-2d pheix-ib"><strong>19 February 2021</strong></div></div>
                                    <div class="pheix-ib pheix-abs pheix-width-100 pheix-block-reset-top-left"><div class="pheix-roadmap-b-3 pheix-ib">Late α-release <strong>06 Apr, 2020</strong></div></div>
                                </div>
                            </div>
                        </div>
                    </section>
                </section>
                <section class="pheix-presentation-slide">
                    <div class="pheix-presentation-slide-header pheix-presentation-slide-bg-1">Summary</div>
                    <div class="pheix-presentation-slide-body-container">
                        <div class="pheix-presentation-slide-body">
                            <p>Raku is very friendly for Ethereum blockchain: actually, everything we have needed to start development is provided by <a href="https://rakudo.org" target="_blank">Rakudo Star</a> bundle.</p>
                            <p>OOP, fantastic syntax, <strong>UTF8</strong> and <strong>big numbers</strong> are language built-in, <strong>JSON</strong> and <strong>UserAgent</strong> are provided by Rakudo Star bundle. It's really fast start like with JavaScript, I think faster than Go or Rust.</p>
                            <p>And <strong>Pheix</strong> demonstrates that we really can implement more-or-less fast web CMS on Raku backend with blockchain support. As I know today only <a href="https://nodejs.org/en/" target="_blank">NODE.js</a> provides similar features.</p>
                        </div>
                    </div>
                </section>
                <section class="pheix-presentation-slide">
                    <div class="pheix-presentation-slide-header pheix-presentation-slide-bg-1">Open call and donate</div>
                    <div class="pheix-presentation-slide-body-container">
                        <div class="pheix-presentation-slide-body">
                            <p>I would like to invite you to <strong>Pheix</strong>, <strong>Net::Ethereum</strong> and <strong>Router::Right</strong> development process — code review, forking and merge requests are very welcome:</p>
                            <p><a href="https://gitlab.com/pheix-pool/core-perl6" target="_blank">https://gitlab.com/pheix-pool/core-perl6</a></p>
                            <p><a href="https://gitlab.com/pheix/net-ethereum-perl6" target="_blank">https://gitlab.com/pheix/net-ethereum-perl6</a></p>
                            <p><a href="https://gitlab.com/pheix/router-right-perl6/" target="_blank">https://gitlab.com/pheix/router-right-perl6/</a></p>
                            <p class="pheix-donate">We need you at: <a href="https://pheix.org/#donate" target="_blank">https://pheix.org/#donate</a></p>
                        </div>
                    </div>
                </section>
                <section class="pheix-presentation-slide">
                    <div class="pheix-presentation-slide-header pheix-presentation-slide-bg-1">The End</div>
                    <div class="pheix-presentation-slide-body-container">
                        <div class="pheix-presentation-slide-body">
                            <div class="pheix-text-align-center"><img src="resources/skins/akin/img/slides/tpc20/s40-attention.jpg" alt="" class="pheix-mediumheight-slide-img"></div>
                            <p class="pheix-theend-text"><strong>Konstantin Narkhov</strong><br><a href="mailto:konstantin@narkhov.pro">konstantin@narkhov.pro</a><br><a href="https://narkhov.pro" target="_blank">https://narkhov.pro</a><br><a href="https://www.linkedin.com/in/knarkhov/" target="_blank">https://www.linkedin.com/in/knarkhov/</a></p></p>
                        </div>
                    </div>
                </section>
            </div>
        </div>
        <script src="https://cdnjs.cloudflare.com/ajax/libs/reveal.js/3.6.0/lib/js/head.min.js"></script>
        <script src="https://cdnjs.cloudflare.com/ajax/libs/reveal.js/3.6.0/js/reveal.min.js"></script>
        <script>
        Reveal.initialize({
            dependencies: [
                { src: 'https://cdnjs.cloudflare.com/ajax/libs/reveal.js/3.6.0/plugin/highlight/highlight.min.js', async: true, callback:() => hljs.initHighlightingOnLoad() },
            ]
        });
        </script>
    </body>
</html>
