<p class="standart_text_head">
	Контактная информация</p>
<p class="standart_text">
	Контактный email: <a class="moipotoloklink" href="mailto:feedback@stroyleo.ru?subject=%D0%A1%D0%BE%D0%BE%D0%B1%D1%89%D0%B5%D0%BD%D0%B8%D0%B5%20%D1%81%20%D1%81%D0%B0%D0%B9%D1%82%D0%B0%20moipotolok.su">feedback@stroyleo.ru</a></p>
<p>
	&nbsp;</p>
<p>
	<img alt="" src="images/newsline.gif" style="width: 675px; height: 1px;" /></p>
<p>
	&nbsp;</p>
<p>
	<big><em>Вы можете связаться с нашим менеджером, используя форму обратной связи:</em></big><br />
	&nbsp;</p>
<p>
	%feedbackform%</p>
<p>
	&nbsp;</p>
